%YAML 1.1
%TAG !u! tag:unity3d.com,2011:
--- !u!114 &11400000
MonoBehaviour:
  m_ObjectHideFlags: 0
  m_PrefabParentObject: {fileID: 0}
  m_PrefabInternal: {fileID: 0}
  m_GameObject: {fileID: 0}
  m_Enabled: 1
  m_EditorHideFlags: 0
  m_Script: {fileID: 11500000, guid: 6c1226072a2c8ff4ca95dfca629cb61c, type: 3}
  m_Name: Derpy Cat
  m_EditorClassIdentifier: 
  title: Cat
  description: Has gone full mittens.
  art: {fileID: 21300000, guid: 4aa558228acc3c941ab74bc52d4d7eec, type: 3}
  cost: 1
  attack: 2
  hp: 2
  canAttack: 0
